<?xml version="1.0" encoding="UTF-8"?>
<svg width="29px" height="29px" viewBox="0 0 29 29" version="1.1" xmlns="http://www.w3.org/2000/svg" xmlns:xlink="http://www.w3.org/1999/xlink">
    <!-- Generator: Sketch 46.2 (44496) - http://www.bohemiancoding.com/sketch -->
    <title>cursor</title>
    <desc>Created with Sketch.</desc>
    <defs></defs>
    <g id="Page-1" stroke="none" stroke-width="1" fill="none" fill-rule="evenodd">
        <g id="app.AdRux.com/dashboard/inbox-Copy-4" transform="translate(-36.000000, -201.000000)" fill-rule="nonzero" fill="#34495E">
            <g id="cursor" transform="translate(36.000000, 201.000000)">
                <path d="M28.1459559,0.465503571 C28.14428,0.463827691 28.1429393,0.462040086 28.1412634,0.460364206 C28.1395875,0.458688326 28.1377999,0.457347622 28.136124,0.455783467 C27.6910103,0.0143567044 27.0525001,-0.118261258 26.4680649,0.110272897 L0.993740912,10.0709767 C0.320260647,10.3342575 -0.0742973418,10.9936045 0.0116752966,11.7114956 C0.0978713856,12.4294425 0.637113672,12.976729 1.35366405,13.0733156 L13.8041668,14.7524355 C13.8274615,14.7556197 13.8461197,14.7741661 13.8493038,14.7976284 L15.5284237,27.2480194 C15.6250103,27.9645698 16.1722968,28.5039238 16.8902437,28.5900082 C16.9558265,28.5978848 17.0207948,28.6016276 17.0851486,28.6016276 C17.725223,28.6016276 18.2914469,28.2198622 18.5307626,27.6079984 L28.4915781,2.1333951 C28.7200006,1.54907165 28.5874385,0.910673132 28.1459559,0.465503571 Z M1.55560758,11.5777045 C1.52767625,11.5739058 1.51510715,11.5722858 1.51024709,11.5318412 C1.50544291,11.4913967 1.51728579,11.4867042 1.54337365,11.4765931 L25.3774023,2.15719259 L14.2297286,13.304978 C14.1570512,13.2839178 1.55560758,11.5777045 1.55560758,11.5777045 Z M17.1251462,27.0583657 C17.1149792,27.0844535 17.1109013,27.096464 17.0698981,27.0914364 C17.0295094,27.0866322 17.0277776,27.0739513 17.0240907,27.0461876 C17.0240907,27.0461876 15.3178774,14.4447439 15.2968171,14.3720666 L26.4444909,3.22433705 L17.1251462,27.0583657 Z" id="Shape"></path>
            </g>
        </g>
    </g>
</svg>