<?xml version="1.0" encoding="UTF-8"?>
<svg width="101px" height="26px" viewBox="0 0 101 26" version="1.1" xmlns="http://www.w3.org/2000/svg" xmlns:xlink="http://www.w3.org/1999/xlink">
    <!-- Generator: Sketch 42 (36781) - http://www.bohemiancoding.com/sketch -->
    <title>Group</title>
    <desc>Created with Sketch.</desc>
    <defs>
        <linearGradient x1="1.44424438%" y1="0%" x2="100%" y2="100%" id="linearGradient-1">
            <stop stop-color="#17EAD9" offset="0%"></stop>
            <stop stop-color="#6078EA" offset="100%"></stop>
        </linearGradient>
    </defs>
    <g id="Page-1" stroke="none" stroke-width="1" fill="none" fill-rule="evenodd">
        <g id="app.AdRux.com/dashboard/-(Dashboard)" transform="translate(-36.000000, -29.000000)" fill="url(#linearGradient-1)">
            <g id="bg">
                <g id="Group" transform="translate(36.000000, 29.000000)">
                    <path d="M0,25.1857308 L8.56730769,0 L15.0544872,0 L23.6217949,25.1857308 L17.275641,25.1857308 L15.724359,19.902011 L7.86217949,19.902011 L6.34615385,25.1857308 L0,25.1857308 Z M9.30769231,14.9705393 L14.2788462,14.9705393 L12.8685897,10.0742923 C12.4102564,8.48917638 11.8461538,5.74164212 11.8461538,5.74164212 L11.775641,5.74164212 C11.775641,5.74164212 11.2115385,8.48917638 10.7532051,10.0742923 L9.30769231,14.9705393 Z M24.2916667,16.0977328 C24.2916667,10.3560907 27.7467949,6.62226207 32.5769231,6.62226207 C34.1987179,6.62226207 36.1378205,6.86883566 37.3365385,8.0664788 L37.4070513,8.0664788 C37.4070513,8.0664788 37.3717949,7.71423082 37.3717949,7.25630844 L37.3717949,0 L43.4711538,0 L43.4711538,25.1857308 L37.7596154,25.1857308 L37.7596154,23.9880876 C37.7596154,23.4244908 37.7948718,22.9665685 37.7948718,22.9665685 L37.724359,22.9665685 C36.5961538,24.6925836 34.6217949,25.6084283 32.4711538,25.6084283 C27.5352564,25.6084283 24.2916667,21.7337005 24.2916667,16.0977328 Z M30.4262821,16.0977328 C30.4262821,18.8100423 31.8717949,20.5712822 33.9871795,20.5712822 C35.8205128,20.5712822 37.5480769,19.2327398 37.5480769,16.0977328 C37.5480769,13.9137953 36.3846154,11.7650826 33.9871795,11.7650826 C32.0833333,11.7650826 30.4262821,13.3149737 30.4262821,16.0977328 Z M46.5384615,0 L50.2403846,0 C52.7083333,0 53.9070513,0.21134879 54.9647436,0.669271167 C57.5384615,1.72601511 59.1955128,4.1213014 59.1955128,7.50288203 C59.1955128,10.4617651 57.6442308,13.2797489 55,14.3364929 C55,14.4069425 55.3173077,14.7944153 55.8108974,15.71026 L60.9583333,25.0096068 L55.8461538,25.0096068 L50.9102564,15.6750352 L46.5384615,15.6750352 L46.5384615,11.7392738 L46.5384615,0 Z M46.5384615,12.046881 L50.6282051,12.046881 C53.0608974,12.046881 54.5769231,10.5322147 54.5769231,8.0664788 C54.5769231,6.48136288 53.9775641,5.21327014 52.6025641,4.64967337 C51.9679487,4.36787498 51.2275641,4.22697579 49.8525641,4.22697579 L46.5384615,4.22697579 L46.5384615,12.046881 Z M63.4615385,18.5986935 C63.4615385,23.4949404 65.8237179,25.4323043 69.7019231,25.4323043 C72.7692308,25.4323043 75.0961538,23.4949404 75.9423077,21.6632509 L76.0128205,21.6632509 C76.0128205,21.6632509 75.9070513,22.2268477 75.9070513,22.8961189 L75.9070513,25.0096068 L80.2083333,25.0096068 L80.2083333,7.04495965 L75.7660256,7.04495965 L75.7660256,15.2875624 C75.7660256,18.4930191 73.9679487,21.3462277 70.724359,21.3462277 C68.5032051,21.3462277 67.9391026,19.8667862 67.9391026,17.6828487 L67.9391026,7.04495965 L63.4615385,7.04495965 L63.4615385,18.5986935 Z M83.2051282,25.0096068 L88.1762821,25.0096068 L91.2788462,19.7963366 C91.525641,19.4088638 91.7724359,18.8452671 91.7724359,18.8452671 L91.8429487,18.8452671 C91.8429487,18.8452671 92.125,19.4088638 92.3717949,19.7963366 L95.474359,25.0096068 L100.480769,25.0096068 L94.5224359,15.9216088 L100.304487,7.04495965 L95.2275641,7.04495965 L92.4423077,11.9412066 C92.1955128,12.399129 91.8429487,13.0684002 91.8429487,13.0684002 L91.7724359,13.0684002 C91.7724359,13.0684002 91.4551282,12.399129 91.2083333,11.9412066 L88.4230769,7.04495965 L83.3461538,7.04495965 L89.1282051,15.9216088 L83.2051282,25.0096068 Z" id="AdRux-Copy"></path>
                </g>
            </g>
        </g>
    </g>
</svg>